{

        "amit_mittal": {

            "dept": "CS",

            "email": "amitmittal.cse@jecrc.ac.in",

            "sitting": "SDC",
			
			"mob":"9782862495"
        },

        "vatan_mishra": {

            "dept": "CS",

            "email": "vatanmishra.cse@jecrc.ac.in",

            "sitting": "Staff_Room2",
			
			"mob":"9782862495"
				
        },
		"pratap_shekhawat": {

            "dept": "CS",

            "email": "pratapshekhawat.cse@jecrc.ac.in",

            "sitting": "CP3",
			
			"mob":"9782862495"
        },
		"sonam_gupta": {

            "dept": "CS",

            "email": "sonamgupta.cse@jecrc.ac.in",

            "sitting": "Staff_Room",
			
			"mob":"9782862495"
        },
		"purva_rawat": {

            "dept": "CS",

            "email": "purvarawat.cse@jecrc.ac.in",

            "sitting": "HR",
			
			"mob":"9782862495"
        },
		"harsh_jain": {

            "dept": "CS",

            "email": "harshjain.cse@jecrc.ac.in",

            "sitting": "CP3",
			
			"mob":"9782862495"
        },
		"arpita_shukla": {

            "dept": "CS",

            "email": "arpitashukla.cse@jecrc.ac.in",

            "sitting": "SDC",
			
			"mob":"9782862495"
        },
		
        "geet_kalani": {

            "dept": "CS",

            "email": "geetkalani.cse@jecrc.ac.in",

            "sitting": "Staff_Room2",
			
			"mob":"9782862495"
        },

        "pradeep_sharma": {

            "dept": "CS",

            "email": "pradeepsharma.cse@jecrc.ac.in",

            "sitting": "IBM_Lab",
			
			"mob":"9782862495"
        },

        "garima_ojha": {

            "dept": "CS",

            "email": "garimaojha.cse@jecrc.ac.in",

            "sitting": "IIPC",
			
			"mob":"9782862495"
        },

        "geerija_lavania": {

            "dept": "CS",

            "email": "geerijalavania.cse@jecrc.ac.in",

            "sitting": "Staff_Room2",
			
			"mob":"9782862495"
        },
        "prahlad_sharma": {

            "dept": "CS",

            "email": "prahladsharma.cse@jecrc.ac.in",

            "sitting": "Staff_Room",
			
			"mob":"9782862495"
        },

        "hemlata_soni": {

            "dept": "IT",

            "email": "hemlatasoni.it@jecrc.ac.in",

            "sitting": "Staff_Room",
			
			"mob":"9782862495"
        },
		"deepak_bansal": {

            "dept": "IT",

            "email": "deepakbansal.it@jecrc.ac.in",

            "sitting": "Staff_Room",
			
			"mob":"9782862495"
        },
		"karuna_bhavik": {

            "dept": "IT",

            "email": "karunabhavik.it@jecrc.ac.in",

            "sitting": "IIPC",
			
			"mob":"9782862495"
        },
		"kavita_gupta": {

            "dept": "IT",

            "email": "kavitagupta.it@jecrc.ac.in",

            "sitting": "Staff_Room2",
			
			"mob":"9782862495"
        },
		"anita_jaiman": {

            "dept": "IT",

            "email": "anitajaiman.it@jecrc.ac.in",

            "sitting": "SDC",
			
			"mob":"9782862495"
        },
		"bhavik_sharma": {

            "dept": "IT",

            "email": "bhaviksharma.it@jecrc.ac.in",

            "sitting": "CP8",
			
			"mob":"9782862495"
        },
		"akshima_soni": {

            "dept": "IT",

            "email": "akshimasoni.it@jecrc.ac.in",

            "sitting": "IBM_Lab",
			
			"mob":"9782862495"
        },
		"devraj_bijawat": {

            "dept": "IT",

            "email": "devrajbijawat.it@jecrc.ac.in",

            "sitting": "EDC_cell",
			
			"mob":"9782862495"
        },
        "neelam_chaplot": {

            "dept": "IT",

            "email": "neelamchaplot.it@jecrc.ac.in",

            "sitting": "CP8",
			
			"mob":"9782862495"
        },
        "ashish_ameriya": {

            "dept": "IT",

            "email": "ashishameriya.it@jecrc.ac.in",

            "sitting": "IIPC",
			
			"mob":"9782862495"
        },
        "geetika_gautam": {

            "dept": "IT",

            "email": "geetikagautam.it@jecrc.ac.in",

            "sitting": "CP8",
			
			"mob":"9782862495"
        },

        "mohit_jain": {

            "dept": "ECE",

            "email": "mohitjain.ece@jecrc.ac.in",

            "sitting": "B-Block",
			
			"mob":"9782862495"
        },
          "rakesh_jain": {

            "dept": "ECE",

            "email": "rakeshjain.ece@jecrc.ac.in",

            "sitting": "B-Block",
			
			"mob":"9782862495"
        },
		"mohita_sen": {

            "dept": "ECE",

            "email": "mohitasen.ece@jecrc.ac.in",

            "sitting": "B-Block",
			
			"mob":"9782862495"
        },
		"vipin_agarwal": {

            "dept": "ECE",

            "email": "vipinagarwal.ece@jecrc.ac.in",

            "sitting": "B-Block",
			
			"mob":"9782862495"
        },
		"shyam_singh": {

            "dept": "ECE",

            "email": "shyamsingh.ece@jecrc.ac.in",

            "sitting": "B-Block",
			
			"mob":"9782862495"
        },
		"vikas_gupta": {

            "dept": "ECE",

            "email": "vikasgupta.ece@jecrc.ac.in",

            "sitting": "B-Block",
			
			"mob":"9782862495"
        },
		"imran_khan": {

            "dept": "ECE",

            "email": "imrankhan.ece@jecrc.ac.in",

            "sitting": "B-Block",
			
			"mob":"9782862495"
        },
        "shikha_maheshwari": {

            "dept": "ECE",

            "email": "shikhamaheshwari.ece@jecrc.ac.in",

            "sitting": "B-Block",
			
			"mob":"9782862495"
			
        },
        "bhavna_sharma": {

            "dept": "ECE",

            "email": "bhavna sharma.ece@jecrc.ac.in",

            "sitting": "B-Block",
			
			"mob":"9782862495"
			
        },
        "ankur_raj": {

            "dept": "ECE",

            "email": "ankurraj.ece@jecrc.ac.in",

            "sitting": "B-Block",
			
			"mob":"9782862495"
        },
        "richa_sharma": {

            "dept": "ECE",

            "email": "richasharma.ece@jecrc.ac.in",

            "sitting": "B-Block",
			
			"mob":"9782862495"
        },

        "priya_gupta": {

            "dept": "EE",

            "email": "priyagupta.ee@jecrc.ac.in",

            "sitting": "B-Block",
			
			"mob":"9782862495"
        },
        "vijaylaxmi_sharma": {

            "dept": "EE",

            "email": "vijaylaxmisharma.ee@jecrc.ac.in",

            "sitting": "B-Block",
			
			"mob":"9782862495"
        },
        "ashish_sharma": {

            "dept": "EE",

            "email": "asishsharma.ee@jecrc.ac.in",

            "sitting": "B-Block",
			
			"mob":"9782862495"
        },
        
		"kapil_ghiya": {

            "dept": "EE",

            "email": "kapilghiya.ee@jecrc.ac.in",

            "sitting": "B-Block",
			
			"mob":"9782862495"
        },
		"komal_vijay": {

            "dept": "EE",

            "email": "komalvijay.ee@jecrc.ac.in",

            "sitting": "B-Block",
			
			"mob":"9782862495"
        },
		"tarun_verma": {

            "dept": "EE",

            "email": "tarunverma.ee@jecrc.ac.in",

            "sitting": "B-Block",
			
			"mob":"9782862495"
        },
		"lalit_sukheja": {

            "dept": "EE",

            "email": "lalitsukheja.ee@jecrc.ac.in",

            "sitting": "B-Block",
			
			"mob":"9782862495"
        },
		"niti_mohan": {

            "dept": "EE",

            "email": "nitimohan.ee@jecrc.ac.in",

            "sitting": "B-Block",
			
			"mob":"9782862495"
        },
		"devesh_gupta": {

            "dept": "EE",

            "email": "deveshgupta.ee@jecrc.ac.in",

            "sitting": "B-Block",
			
			"mob":"9782862495"
        },
	     "himanshu_garg": {

            "dept": "EE",

            "email": "himanshugarg.ee@jecrc.ac.in",

            "sitting": "B-Block",
			
			"mob":"9782862495"
        },
		"muskaan_vijayvargiya": {

            "dept": "EE",

            "email": "muskaanvijayvargiya.ee@jecrc.ac.in",

            "sitting": "B-Block",
			
			"mob":"9782862495"
        },

        "manish_jain": {

            "dept": "CE",

            "email": "manishjain.ce@jecrc.ac.in",

            "sitting": "D-Block",
			
			"mob":"9782862495"
        },
        "rekha_mittal": {

            "dept": "CE",

            "email": "rekhamittal.ce@jecrc.ac.in",

            "sitting": "D-Block",
			
			"mob":"9782862495"
        },
        "seema_joshi": {

            "dept": "CE",

            "email": "seemajoshi.ce@jecrc.ac.in",

            "sitting": "D-Block",
			
			"mob":"9782862495"
        },
        "ankush_thakur": {

            "dept": "CE",

            "email": "ankushthakur.ce@jecrc.ac.in",

            "sitting": "D-Block",
			
			"mob":"9782862495"
			
			
        },
        "neha_gupta": {

            "dept": "CE",

            "email": "nehagupta.ce@jecrc.ac.in",

            "sitting": "D-Block",
			
			"mob":"9782862495"
        },
        "mohammad_inzmam": {

            "dept": "CE",

            "email": "mdinzmam.ce@jecrc.ac.in",

            "sitting": "D-Block",
			
			"mob":"9782862495"
        },
		"priyanshi_gupta": {

            "dept": "CE",

            "email": "priyanshigupta.ce@jecrc.ac.in",

            "sitting": "D-Block",
			
			"mob":"9782862495"
        },
		"balram_chaudhary": {

            "dept": "CE",

            "email": "balramchaudhary.ce@jecrc.ac.in",

            "sitting": "D-Block",
			
			"mob":"9782862495"
        },
		"mishkin_khunger": {

            "dept": "CE",

            "email": "mishkinkhunger.ce@jecrc.ac.in",

            "sitting": "D-Block",
			
			"mob":"9782862495"
        },
		"arshita_mittal": {

            "dept": "CE",

            "email": "arshitamittal.ce@jecrc.ac.in",

            "sitting": "D-Block",
			
			"mob":"9782862495"
        },
		"shoiab_malik": {

            "dept": "CE",

            "email": "shoiabmalik.ce@jecrc.ac.in",

            "sitting": "D-Block",
			
			"mob":"9782862495"
        },

        "manoj_jain": {

            "dept": "ME",

            "email": "manojjain.me@jecrc.ac.in",

            "sitting": "C-Block",
			
			"mob":"9782862495"
        },
        "prakash_sharma": {

            "dept": "ME",

            "email": "prakashsharma.me@jecrc.ac.in",

            "sitting": "C-Block",
			
			"mob":"9782862495"
        },
        "sudhakar_sharma": {

            "dept": "ME",

            "email": "sudhakarsharma.me@jecrc.ac.in",

            "sitting": "C-Block",
			
			"mob":"9782862495"
        },
        "manoj_sharma": {

            "dept": "ME",

            "email": "manojsharma.me@jecrc.ac.in",

            "sitting": "Mechanical_Workshop",
			
			"mob":"9782862495"
        },
        "deepak_sharma": {

            "dept": "ME",

            "email": "deepaksharma.me@jecrc.ac.in",

            "sitting": "C-Block",
			
			"mob":"9782862495"
        },
		"sudhir_verma": {

            "dept": "ME",

            "email": "sudhirverma.me@jecrc.ac.in",

            "sitting": "Mechanical_Workshop",
			
			"mob":"9782862495"
        },
		"suresh_jangid": {

            "dept": "ME",

            "email": "sureshjangid.me@jecrc.ac.in",

            "sitting": "C-Block",
			
			"mob":"9782862495"
        },
		"rajveer_junaid": {

            "dept": "ME",

            "email": "rajveerjunaid.me@jecrc.ac.in",

            "sitting": "C-Block",
			
			"mob":"9782862495"
        },
		"saif_kahar": {

            "dept": "ME",

            "email": "saifkahar.me@jecrc.ac.in",

            "sitting": "Mechanical_Workshop",
			
			"mob":"9782862495"
        },
		"amit_shah": {

            "dept": "ME",

            "email": "amitshah.me@jecrc.ac.in",

            "sitting": "C-Block",
			
			"mob":"9782862495"
        },
		"khushwant_jeph": {

            "dept": "ME",

            "email": "khushwantjeph.me@jecrc.ac.in",

            "sitting": "C-Block",
			
			"mob":"9782862495"
    }

}